{
    "modulus":"5YwIU5E8H1BEXp3VYgMwW0ZgLRecIuOjFCZmy530AqpNzxnCGIH3YMPu9s+aL2UckPD+QSmPqg0/YV/cyGpgTAMWtGv+91ZdPw3Qf/DtdFUU4xHlfQZTvLpnxGflreHt4UZrlWR6tAkYAideGXaeFy34ai/ZhB6K3ibPQ7oqusU=",
    "exponent":"AQAB"
    
}